memory/output_ports/simulation/qsim/output_ports.msim.vcd
$comment
	File created using the following command:
		vcd file output_ports.msim.vcd -direction
$end
$date
	Thu May 23 17:33:45 2024
$end
$version
	ModelSim Version 10.1d
$end
$timescale
	1ps
$end
$scope module output_ports_vlg_vec_tst $end
$var reg 8 ! address [7:0] $end
$var reg 1 " clock $end
$var reg 8 # data_in [7:0] $end
$var reg 1 $ reset $end
$var reg 1 % writee $end
$var wire 1 & port_out_00 [7] $end
$var wire 1 ' port_out_00 [6] $end
$var wire 1 ( port_out_00 [5] $end
$var wire 1 ) port_out_00 [4] $end
$var wire 1 * port_out_00 [3] $end
$var wire 1 + port_out_00 [2] $end
$var wire 1 , port_out_00 [1] $end
$var wire 1 - port_out_00 [0] $end
$var wire 1 . port_out_01 [7] $end
$var wire 1 / port_out_01 [6] $end
$var wire 1 0 port_out_01 [5] $end
$var wire 1 1 port_out_01 [4] $end
$var wire 1 2 port_out_01 [3] $end
$var wire 1 3 port_out_01 [2] $end
$var wire 1 4 port_out_01 [1] $end
$var wire 1 5 port_out_01 [0] $end
$var wire 1 6 sampler $end
$scope module i1 $end
$var wire 1 7 gnd $end
$var wire 1 8 vcc $end
$var wire 1 9 unknown $end
$var tri1 1 : devclrn $end
$var tri1 1 ; devpor $end
$var tri1 1 < devoe $end
$var wire 1 = port_out_00[0]~output_o $end
$var wire 1 > port_out_00[1]~output_o $end
$var wire 1 ? port_out_00[2]~output_o $end
$var wire 1 @ port_out_00[3]~output_o $end
$var wire 1 A port_out_00[4]~output_o $end
$var wire 1 B port_out_00[5]~output_o $end
$var wire 1 C port_out_00[6]~output_o $end
$var wire 1 D port_out_00[7]~output_o $end
$var wire 1 E port_out_01[0]~output_o $end
$var wire 1 F port_out_01[1]~output_o $end
$var wire 1 G port_out_01[2]~output_o $end
$var wire 1 H port_out_01[3]~output_o $end
$var wire 1 I port_out_01[4]~output_o $end
$var wire 1 J port_out_01[5]~output_o $end
$var wire 1 K port_out_01[6]~output_o $end
$var wire 1 L port_out_01[7]~output_o $end
$var wire 1 M clock~input_o $end
$var wire 1 N clock~inputclkctrl_outclk $end
$var wire 1 O data_in[0]~input_o $end
$var wire 1 P reset~input_o $end
$var wire 1 Q reset~inputclkctrl_outclk $end
$var wire 1 R address[7]~input_o $end
$var wire 1 S address[6]~input_o $end
$var wire 1 T writee~input_o $end
$var wire 1 U address[5]~input_o $end
$var wire 1 V U3~1_combout $end
$var wire 1 W address[0]~input_o $end
$var wire 1 X address[3]~input_o $end
$var wire 1 Y address[2]~input_o $end
$var wire 1 Z address[1]~input_o $end
$var wire 1 [ address[4]~input_o $end
$var wire 1 \ U3~0_combout $end
$var wire 1 ] U3~2_combout $end
$var wire 1 ^ port_out_00[0]~reg0_q $end
$var wire 1 _ data_in[1]~input_o $end
$var wire 1 ` port_out_00[1]~reg0feeder_combout $end
$var wire 1 a port_out_00[1]~reg0_q $end
$var wire 1 b data_in[2]~input_o $end
$var wire 1 c port_out_00[2]~reg0feeder_combout $end
$var wire 1 d port_out_00[2]~reg0_q $end
$var wire 1 e data_in[3]~input_o $end
$var wire 1 f port_out_00[3]~reg0_q $end
$var wire 1 g data_in[4]~input_o $end
$var wire 1 h port_out_00[4]~reg0_q $end
$var wire 1 i data_in[5]~input_o $end
$var wire 1 j port_out_00[5]~reg0feeder_combout $end
$var wire 1 k port_out_00[5]~reg0_q $end
$var wire 1 l data_in[6]~input_o $end
$var wire 1 m port_out_00[6]~reg0feeder_combout $end
$var wire 1 n port_out_00[6]~reg0_q $end
$var wire 1 o data_in[7]~input_o $end
$var wire 1 p port_out_00[7]~reg0_q $end
$var wire 1 q U4~0_combout $end
$var wire 1 r port_out_01[0]~reg0_q $end
$var wire 1 s port_out_01[1]~reg0feeder_combout $end
$var wire 1 t port_out_01[1]~reg0_q $end
$var wire 1 u port_out_01[2]~reg0feeder_combout $end
$var wire 1 v port_out_01[2]~reg0_q $end
$var wire 1 w port_out_01[3]~reg0_q $end
$var wire 1 x port_out_01[4]~reg0_q $end
$var wire 1 y port_out_01[5]~reg0feeder_combout $end
$var wire 1 z port_out_01[5]~reg0_q $end
$var wire 1 { port_out_01[6]~reg0feeder_combout $end
$var wire 1 | port_out_01[6]~reg0_q $end
$var wire 1 } port_out_01[7]~reg0_q $end
$upscope $end
$upscope $end
$enddefinitions $end
#0
$dumpvars
b11100000 !
0"
b10101010 #
1$
1%
0-
0,
0+
0*
0)
0(
0'
0&
05
04
03
02
01
00
0/
0.
x6
07
18
x9
1:
1;
1<
0=
0>
0?
0@
0A
0B
0C
0D
0E
0F
0G
0H
0I
0J
0K
0L
0M
0N
0O
1P
1Q
1R
1S
1T
1U
1V
0W
0X
0Y
0Z
0[
1\
1]
0^
1_
1`
0a
0b
0c
0d
1e
0f
0g
0h
1i
1j
0k
0l
0m
0n
1o
0p
0q
0r
1s
0t
0u
0v
0w
0x
1y
0z
0{
0|
0}
$end
#5000
1"
1M
1N
06
1p
1k
1f
1a
1D
1B
1@
1>
1&
1(
1*
1,
#10000
b11100001 !
0"
1W
0M
0N
16
1q
0]
#15000
1"
1M
1N
06
1}
1z
1w
1t
1L
1J
1H
1F
1.
10
12
14
#20000
b1100001 !
b100001 !
b1 !
b0 !
0"
0W
0U
0S
0R
0M
0N
16
0q
1]
0V
0]
#25000
1"
1M
1N
06
#30000
0"
0M
0N
16
#35000
1"
1M
1N
06
#40000
0"
0M
0N
16
#45000
1"
1M
1N
06
#50000
0"
0M
0N
16
#55000
1"
1M
1N
06
#60000
0"
0M
0N
16
#65000
1"
1M
1N
06
#70000
0"
0M
0N
16
#75000
1"
1M
1N
06
#80000
0"
0M
0N
16
#85000
1"
1M
1N
06
#90000
0"
0M
0N
16
#95000
1"
1M
1N
06
#100000
0"
0M
0N
16
#105000
1"
1M
1N
06
#110000
0"
0M
0N
16
#115000
1"
1M
1N
06
#120000
0"
0M
0N
16
#125000
1"
1M
1N
06
#130000
0"
0M
0N
16
#135000
1"
1M
1N
06
#140000
0"
0M
0N
16
#145000
1"
1M
1N
06
#150000
0"
0M
0N
16
#155000
1"
1M
1N
06
#160000
0"
0M
0N
16
#165000
1"
1M
1N
06
#170000
0"
0M
0N
16
#175000
1"
1M
1N
06
#180000
0"
0M
0N
16
#185000
1"
1M
1N
06
#190000
0"
0M
0N
16
#195000
1"
1M
1N
06
#200000
0"
0M
0N
16
#205000
1"
1M
1N
06
#210000
0"
0M
0N
16
#215000
1"
1M
1N
06
#220000
0"
0M
0N
16
#225000
1"
1M
1N
06
#230000
0"
0M
0N
16
#235000
1"
1M
1N
06
#240000
0"
0M
0N
16
#245000
1"
1M
1N
06
#250000
0"
0M
0N
16
#255000
1"
1M
1N
06
#260000
0"
0M
0N
16
#265000
1"
1M
1N
06
#270000
0"
0M
0N
16
#275000
1"
1M
1N
06
#280000
0"
0M
0N
16
#285000
1"
1M
1N
06
#290000
0"
0M
0N
16
#295000
1"
1M
1N
06
#300000
0"
0M
0N
16
#305000
1"
1M
1N
06
#310000
0"
0M
0N
16
#315000
1"
1M
1N
06
#320000
0"
0M
0N
16
#325000
1"
1M
1N
06
#330000
0"
0M
0N
16
#335000
1"
1M
1N
06
#340000
0"
0M
0N
16
#345000
1"
1M
1N
06
#350000
0"
0M
0N
16
#355000
1"
1M
1N
06
#360000
0"
0M
0N
16
#365000
1"
1M
1N
06
#370000
0"
0M
0N
16
#375000
1"
1M
1N
06
#380000
0"
0M
0N
16
#385000
1"
1M
1N
06
#390000
0"
0M
0N
16
#395000
1"
1M
1N
06
#400000
0"
0M
0N
16
#405000
1"
1M
1N
06
#410000
0"
0M
0N
16
#415000
1"
1M
1N
06
#420000
0"
0M
0N
16
#425000
1"
1M
1N
06
#430000
0"
0M
0N
16
#435000
1"
1M
1N
06
#440000
0"
0M
0N
16
#445000
1"
1M
1N
06
#450000
0"
0M
0N
16
#455000
1"
1M
1N
06
#460000
0"
0M
0N
16
#465000
1"
1M
1N
06
#470000
0"
0M
0N
16
#475000
1"
1M
1N
06
#480000
0"
0M
0N
16
#485000
1"
1M
1N
06
#490000
0"
0M
0N
16
#495000
1"
1M
1N
06
#500000
0"
0M
0N
16
#505000
1"
1M
1N
06
#510000
0"
0M
0N
16
#515000
1"
1M
1N
06
#520000
0"
0M
0N
16
#525000
1"
1M
1N
06
#530000
0"
0M
0N
16
#535000
1"
1M
1N
06
#540000
0"
0M
0N
16
#545000
1"
1M
1N
06
#550000
0"
0M
0N
16
#555000
1"
1M
1N
06
#560000
0"
0M
0N
16
#565000
1"
1M
1N
06
#570000
0"
0M
0N
16
#575000
1"
1M
1N
06
#580000
0"
0M
0N
16
#585000
1"
1M
1N
06
#590000
0"
0M
0N
16
#595000
1"
1M
1N
06
#600000
0"
0M
0N
16
#605000
1"
1M
1N
06
#610000
0"
0M
0N
16
#615000
1"
1M
1N
06
#620000
0"
0M
0N
16
#625000
1"
1M
1N
06
#630000
0"
0M
0N
16
#635000
1"
1M
1N
06
#640000
0"
0M
0N
16
#645000
1"
1M
1N
06
#650000
0"
0M
0N
16
#655000
1"
1M
1N
06
#660000
0"
0M
0N
16
#665000
1"
1M
1N
06
#670000
0"
0M
0N
16
#675000
1"
1M
1N
06
#680000
0"
0M
0N
16
#685000
1"
1M
1N
06
#690000
0"
0M
0N
16
#695000
1"
1M
1N
06
#700000
0"
0M
0N
16
#705000
1"
1M
1N
06
#710000
0"
0M
0N
16
#715000
1"
1M
1N
06
#720000
0"
0M
0N
16
#725000
1"
1M
1N
06
#730000
0"
0M
0N
16
#735000
1"
1M
1N
06
#740000
0"
0M
0N
16
#745000
1"
1M
1N
06
#750000
0"
0M
0N
16
#755000
1"
1M
1N
06
#760000
0"
0M
0N
16
#765000
1"
1M
1N
06
#770000
0"
0M
0N
16
#775000
1"
1M
1N
06
#780000
0"
0M
0N
16
#785000
1"
1M
1N
06
#790000
0"
0M
0N
16
#795000
1"
1M
1N
06
#800000
0"
0M
0N
16
#805000
1"
1M
1N
06
#810000
0"
0M
0N
16
#815000
1"
1M
1N
06
#820000
0"
0M
0N
16
#825000
1"
1M
1N
06
#830000
0"
0M
0N
16
#835000
1"
1M
1N
06
#840000
0"
0M
0N
16
#845000
1"
1M
1N
06
#850000
0"
0M
0N
16
#855000
1"
1M
1N
06
#860000
0"
0M
0N
16
#865000
1"
1M
1N
06
#870000
0"
0M
0N
16
#875000
1"
1M
1N
06
#880000
0"
0M
0N
16
#885000
1"
1M
1N
06
#890000
0"
0M
0N
16
#895000
1"
1M
1N
06
#900000
0"
0M
0N
16
#905000
1"
1M
1N
06
#910000
0"
0M
0N
16
#915000
1"
1M
1N
06
#920000
0"
0M
0N
16
#925000
1"
1M
1N
06
#930000
0"
0M
0N
16
#935000
1"
1M
1N
06
#940000
0"
0M
0N
16
#945000
1"
1M
1N
06
#950000
0"
0M
0N
16
#955000
1"
1M
1N
06
#960000
0"
0M
0N
16
#965000
1"
1M
1N
06
#970000
0"
0M
0N
16
#975000
1"
1M
1N
06
#980000
0"
0M
0N
16
#985000
1"
1M
1N
06
#990000
0"
0M
0N
16
#995000
1"
1M
1N
06
