memory/rom_128x8_sync/simulation/qsim/rom_128x8_sync.msim.vcd
$comment
	File created using the following command:
		vcd file rom_128x8_sync.msim.vcd -direction
$end
$date
	Thu May 23 16:57:48 2024
$end
$version
	ModelSim Version 10.1d
$end
$timescale
	1ps
$end
$scope module rom_128x8_sync_vlg_vec_tst $end
$var reg 8 ! address [7:0] $end
$var reg 1 " clock $end
$var wire 1 # data_out [7] $end
$var wire 1 $ data_out [6] $end
$var wire 1 % data_out [5] $end
$var wire 1 & data_out [4] $end
$var wire 1 ' data_out [3] $end
$var wire 1 ( data_out [2] $end
$var wire 1 ) data_out [1] $end
$var wire 1 * data_out [0] $end
$var wire 1 + sampler $end
$scope module i1 $end
$var wire 1 , gnd $end
$var wire 1 - vcc $end
$var wire 1 . unknown $end
$var tri1 1 / devclrn $end
$var tri1 1 0 devpor $end
$var tri1 1 1 devoe $end
$var wire 1 2 data_out[0]~output_o $end
$var wire 1 3 data_out[1]~output_o $end
$var wire 1 4 data_out[2]~output_o $end
$var wire 1 5 data_out[3]~output_o $end
$var wire 1 6 data_out[4]~output_o $end
$var wire 1 7 data_out[5]~output_o $end
$var wire 1 8 data_out[6]~output_o $end
$var wire 1 9 data_out[7]~output_o $end
$var wire 1 : clock~input_o $end
$var wire 1 ; clock~inputclkctrl_outclk $end
$var wire 1 < address[6]~input_o $end
$var wire 1 = address[5]~input_o $end
$var wire 1 > address[4]~input_o $end
$var wire 1 ? address[2]~input_o $end
$var wire 1 @ address[0]~input_o $end
$var wire 1 A address[1]~input_o $end
$var wire 1 B address[3]~input_o $end
$var wire 1 C Mux6~2_combout $end
$var wire 1 D Mux6~3_combout $end
$var wire 1 E address[7]~input_o $end
$var wire 1 F data_out[1]~reg0_q $end
$var wire 1 G Mux2~2_combout $end
$var wire 1 H Mux5~0_combout $end
$var wire 1 I data_out[2]~reg0_q $end
$var wire 1 J Mux5~1_combout $end
$var wire 1 K Mux4~0_combout $end
$var wire 1 L data_out[3]~reg0_q $end
$var wire 1 M Mux3~0_combout $end
$var wire 1 N data_out[4]~reg0_q $end
$var wire 1 O Mux2~3_combout $end
$var wire 1 P Mux2~4_combout $end
$var wire 1 Q data_out[5]~reg0_q $end
$var wire 1 R Mux1~0_combout $end
$var wire 1 S data_out[6]~reg0_q $end
$var wire 1 T data_out[7]~reg0_q $end
$upscope $end
$upscope $end
$enddefinitions $end
#0
$dumpvars
b0 !
0"
0*
0)
0(
0'
0&
0%
0$
0#
x+
0,
1-
x.
1/
10
11
02
03
04
05
06
07
08
09
0:
0;
0<
0=
0>
0?
0@
0A
0B
0C
1D
0E
0F
1G
1H
0I
1J
0K
0L
0M
0N
0O
0P
0Q
0R
0S
0T
$end
#5000
1"
1:
1;
0+
1T
1I
1F
19
14
13
1#
1(
1)
#10000
b1 !
0"
1@
0:
0;
1+
1O
1K
0H
1P
#15000
1"
1:
1;
0+
1Q
1L
0I
17
15
04
1%
1'
0(
#20000
b11 !
b10 !
0"
0@
1A
0:
0;
1+
0O
1M
0K
1H
0P
#25000
1"
1:
1;
0+
0Q
1N
0L
1I
07
16
05
14
0%
1&
0'
1(
#30000
b11 !
0"
1@
0:
0;
1+
1R
1O
0M
0H
1C
1P
0D
#35000
1"
1:
1;
0+
1S
1Q
0N
0I
0F
18
17
06
04
03
1$
1%
0&
0(
0)
#40000
b111 !
b101 !
b100 !
0"
0@
0A
1?
0:
0;
1+
0R
0J
#45000
1"
1:
1;
0+
0T
0S
09
08
0#
0$
#50000
b101 !
0"
1@
0:
0;
1+
0O
0P
#55000
1"
1:
1;
0+
0Q
07
0%
#60000
b111 !
b110 !
0"
0@
1A
0:
0;
1+
#65000
1"
1:
1;
0+
#70000
b111 !
0"
1@
0:
0;
1+
#75000
1"
1:
1;
0+
#80000
b1111 !
b1011 !
b1001 !
b1000 !
0"
0@
0A
0?
1B
0:
0;
1+
#85000
1"
1:
1;
0+
#90000
b1001 !
0"
1@
0:
0;
1+
#95000
1"
1:
1;
0+
#100000
b1011 !
b1010 !
0"
0@
1A
0:
0;
1+
#105000
1"
1:
1;
0+
#110000
b1011 !
0"
1@
0:
0;
1+
#115000
1"
1:
1;
0+
#120000
b1111 !
b1101 !
b1100 !
0"
0@
0A
1?
0:
0;
1+
#125000
1"
1:
1;
0+
#130000
b1101 !
0"
1@
0:
0;
1+
#135000
1"
1:
1;
0+
#140000
b1111 !
b1110 !
0"
0@
1A
0:
0;
1+
#145000
1"
1:
1;
0+
#150000
b1111 !
0"
1@
0:
0;
1+
#155000
1"
1:
1;
0+
#160000
b11111 !
b10111 !
b10011 !
b10001 !
b10000 !
0"
0@
0A
0?
0B
1>
0:
0;
1+
1H
0C
1J
0G
0J
0H
#165000
1"
1:
1;
0+
#170000
b10001 !
0"
1@
0:
0;
1+
1O
#175000
1"
1:
1;
0+
#180000
b10011 !
b10010 !
0"
0@
1A
0:
0;
1+
0O
#185000
1"
1:
1;
0+
#190000
b10011 !
0"
1@
0:
0;
1+
1O
1C
#195000
1"
1:
1;
0+
#200000
b10111 !
b10101 !
b10100 !
0"
0@
0A
1?
0:
0;
1+
#205000
1"
1:
1;
0+
#210000
b10101 !
0"
1@
0:
0;
1+
0O
#215000
1"
1:
1;
0+
#220000
b10111 !
b10110 !
0"
0@
1A
0:
0;
1+
#225000
1"
1:
1;
0+
#230000
b10111 !
0"
1@
0:
0;
1+
#235000
1"
1:
1;
0+
#240000
b11111 !
b11011 !
b11001 !
b11000 !
0"
0@
0A
0?
1B
0:
0;
1+
#245000
1"
1:
1;
0+
#250000
b11001 !
0"
1@
0:
0;
1+
#255000
1"
1:
1;
0+
#260000
b11011 !
b11010 !
0"
0@
1A
0:
0;
1+
#265000
1"
1:
1;
0+
#270000
b11011 !
0"
1@
0:
0;
1+
#275000
1"
1:
1;
0+
#280000
b11111 !
b11101 !
b11100 !
0"
0@
0A
1?
0:
0;
1+
#285000
1"
1:
1;
0+
#290000
b11101 !
0"
1@
0:
0;
1+
#295000
1"
1:
1;
0+
#300000
b11111 !
b11110 !
0"
0@
1A
0:
0;
1+
#305000
1"
1:
1;
0+
#310000
b11111 !
0"
1@
0:
0;
1+
#315000
1"
1:
1;
0+
#320000
b111111 !
b101111 !
b100111 !
b100011 !
b100001 !
b100000 !
0"
0@
0A
0?
0B
0>
1=
0:
0;
1+
0C
#325000
1"
1:
1;
0+
#330000
b100001 !
0"
1@
0:
0;
1+
1O
#335000
1"
1:
1;
0+
#340000
b100011 !
b100010 !
0"
0@
1A
0:
0;
1+
0O
#345000
1"
1:
1;
0+
#350000
b100011 !
0"
1@
0:
0;
1+
1O
1C
#355000
1"
1:
1;
0+
#360000
b100111 !
b100101 !
b100100 !
0"
0@
0A
1?
0:
0;
1+
#365000
1"
1:
1;
0+
#370000
b100101 !
0"
1@
0:
0;
1+
0O
#375000
1"
1:
1;
0+
#380000
b100111 !
b100110 !
0"
0@
1A
0:
0;
1+
#385000
1"
1:
1;
0+
#390000
b100111 !
0"
1@
0:
0;
1+
#395000
1"
1:
1;
0+
#400000
b101111 !
b101011 !
b101001 !
b101000 !
0"
0@
0A
0?
1B
0:
0;
1+
#405000
1"
1:
1;
0+
#410000
b101001 !
0"
1@
0:
0;
1+
#415000
1"
1:
1;
0+
#420000
b101011 !
b101010 !
0"
0@
1A
0:
0;
1+
#425000
1"
1:
1;
0+
#430000
b101011 !
0"
1@
0:
0;
1+
#435000
1"
1:
1;
0+
#440000
b101111 !
b101101 !
b101100 !
0"
0@
0A
1?
0:
0;
1+
#445000
1"
1:
1;
0+
#450000
b101101 !
0"
1@
0:
0;
1+
#455000
1"
1:
1;
0+
#460000
b101111 !
b101110 !
0"
0@
1A
0:
0;
1+
#465000
1"
1:
1;
0+
#470000
b101111 !
0"
1@
0:
0;
1+
#475000
1"
1:
1;
0+
#480000
b111111 !
b110111 !
b110011 !
b110001 !
b110000 !
0"
0@
0A
0?
0B
1>
0:
0;
1+
0C
#485000
1"
1:
1;
0+
#490000
b110001 !
0"
1@
0:
0;
1+
1O
#495000
1"
1:
1;
0+
#500000
b110011 !
b110010 !
0"
0@
1A
0:
0;
1+
0O
#505000
1"
1:
1;
0+
#510000
b110011 !
0"
1@
0:
0;
1+
1O
1C
#515000
1"
1:
1;
0+
#520000
b110111 !
b110101 !
b110100 !
0"
0@
0A
1?
0:
0;
1+
#525000
1"
1:
1;
0+
#530000
b110101 !
0"
1@
0:
0;
1+
0O
#535000
1"
1:
1;
0+
#540000
b110111 !
b110110 !
0"
0@
1A
0:
0;
1+
#545000
1"
1:
1;
0+
#550000
b110111 !
0"
1@
0:
0;
1+
#555000
1"
1:
1;
0+
#560000
b111111 !
b111011 !
b111001 !
b111000 !
0"
0@
0A
0?
1B
0:
0;
1+
#565000
1"
1:
1;
0+
#570000
b111001 !
0"
1@
0:
0;
1+
#575000
1"
1:
1;
0+
#580000
b111011 !
b111010 !
0"
0@
1A
0:
0;
1+
#585000
1"
1:
1;
0+
#590000
b111011 !
0"
1@
0:
0;
1+
#595000
1"
1:
1;
0+
#600000
b111111 !
b111101 !
b111100 !
0"
0@
0A
1?
0:
0;
1+
#605000
1"
1:
1;
0+
#610000
b111101 !
0"
1@
0:
0;
1+
#615000
1"
1:
1;
0+
#620000
b111111 !
b111110 !
0"
0@
1A
0:
0;
1+
#625000
1"
1:
1;
0+
#630000
b111111 !
0"
1@
0:
0;
1+
#635000
1"
1:
1;
0+
#640000
b1111111 !
b1011111 !
b1001111 !
b1000111 !
b1000011 !
b1000001 !
b1000000 !
0"
0@
0A
0?
0B
0>
0=
1<
0:
0;
1+
0C
#645000
1"
1:
1;
0+
#650000
b1000001 !
0"
1@
0:
0;
1+
1O
#655000
1"
1:
1;
0+
#660000
b1000011 !
b1000010 !
0"
0@
1A
0:
0;
1+
0O
#665000
1"
1:
1;
0+
#670000
b1000011 !
0"
1@
0:
0;
1+
1O
1C
#675000
1"
1:
1;
0+
#680000
b1000111 !
b1000101 !
b1000100 !
0"
0@
0A
1?
0:
0;
1+
#685000
1"
1:
1;
0+
#690000
b1000101 !
0"
1@
0:
0;
1+
0O
#695000
1"
1:
1;
0+
#700000
b1000111 !
b1000110 !
0"
0@
1A
0:
0;
1+
#705000
1"
1:
1;
0+
#710000
b1000111 !
0"
1@
0:
0;
1+
#715000
1"
1:
1;
0+
#720000
b1001111 !
b1001011 !
b1001001 !
b1001000 !
0"
0@
0A
0?
1B
0:
0;
1+
#725000
1"
1:
1;
0+
#730000
b1001001 !
0"
1@
0:
0;
1+
#735000
1"
1:
1;
0+
#740000
b1001011 !
b1001010 !
0"
0@
1A
0:
0;
1+
#745000
1"
1:
1;
0+
#750000
b1001011 !
0"
1@
0:
0;
1+
#755000
1"
1:
1;
0+
#760000
b1001111 !
b1001101 !
b1001100 !
0"
0@
0A
1?
0:
0;
1+
#765000
1"
1:
1;
0+
#770000
b1001101 !
0"
1@
0:
0;
1+
#775000
1"
1:
1;
0+
#780000
b1001111 !
b1001110 !
0"
0@
1A
0:
0;
1+
#785000
1"
1:
1;
0+
#790000
b1001111 !
0"
1@
0:
0;
1+
#795000
1"
1:
1;
0+
#800000
b1011111 !
b1010111 !
b1010011 !
b1010001 !
b1010000 !
0"
0@
0A
0?
0B
1>
0:
0;
1+
0C
#805000
1"
1:
1;
0+
#810000
b1010001 !
0"
1@
0:
0;
1+
1O
#815000
1"
1:
1;
0+
#820000
b1010011 !
b1010010 !
0"
0@
1A
0:
0;
1+
0O
#825000
1"
1:
1;
0+
#830000
b1010011 !
0"
1@
0:
0;
1+
1O
1C
#835000
1"
1:
1;
0+
#840000
b1010111 !
b1010101 !
b1010100 !
0"
0@
0A
1?
0:
0;
1+
#845000
1"
1:
1;
0+
#850000
b1010101 !
0"
1@
0:
0;
1+
0O
#855000
1"
1:
1;
0+
#860000
b1010111 !
b1010110 !
0"
0@
1A
0:
0;
1+
#865000
1"
1:
1;
0+
#870000
b1010111 !
0"
1@
0:
0;
1+
#875000
1"
1:
1;
0+
#880000
b1011111 !
b1011011 !
b1011001 !
b1011000 !
0"
0@
0A
0?
1B
0:
0;
1+
#885000
1"
1:
1;
0+
#890000
b1011001 !
0"
1@
0:
0;
1+
#895000
1"
1:
1;
0+
#900000
b1011011 !
b1011010 !
0"
0@
1A
0:
0;
1+
#905000
1"
1:
1;
0+
#910000
b1011011 !
0"
1@
0:
0;
1+
#915000
1"
1:
1;
0+
#920000
b1011111 !
b1011101 !
b1011100 !
0"
0@
0A
1?
0:
0;
1+
#925000
1"
1:
1;
0+
#930000
b1011101 !
0"
1@
0:
0;
1+
#935000
1"
1:
1;
0+
#940000
b1011111 !
b1011110 !
0"
0@
1A
0:
0;
1+
#945000
1"
1:
1;
0+
#950000
b1011111 !
0"
1@
0:
0;
1+
#955000
1"
1:
1;
0+
#960000
b1111111 !
b1101111 !
b1100111 !
b1100011 !
b1100001 !
b1100000 !
0"
0@
0A
0?
0B
0>
1=
0:
0;
1+
0C
#965000
1"
1:
1;
0+
#970000
b1100001 !
0"
1@
0:
0;
1+
1O
#975000
1"
1:
1;
0+
#980000
b1100011 !
b1100010 !
0"
0@
1A
0:
0;
1+
0O
#985000
1"
1:
1;
0+
#990000
b1100011 !
0"
1@
0:
0;
1+
1O
1C
#995000
1"
1:
1;
0+
